-------------------- Auto-Git Log --------------------
		Wed Nov 06 2019 23:11:34 GMT-0200 (Horário de Verão de Brasília)
------------------------------------------------------

Modified files:
* capitulo_16/envio_imaplib.py


Created files:
* .autogit/logs/log-6-10-2019-22-41-27.txt


Deleted files:


Renamed files:
