-------------------- Auto-Git Log --------------------
		Wed Nov 06 2019 22:41:27 GMT-0200 (Horário de Verão de Brasília)
------------------------------------------------------

Modified files:
* capitulo_16/envio_imaplib.py


Created files:
* .autogit/logs/log-6-10-2019-13-53-6.txt
* pyzmail.pdf


Deleted files:


Renamed files:
